{
    "timestamp": "2019-10-04T001336",
    "meta": {},
    "timings": {
        "section0": {
            "gflopss": 0.1717121207070724,
            "oi": 0.2857142857142857,
            "timings": 7.0943543333333325
        },
        "section1": {
            "gflopss": 25.457203499345287,
            "oi": 5.175250419646894,
            "timings": 565.9301363333328
        },
        "section2": {
            "gflopss": 0.19034864221814096,
            "oi": 13.9,
            "timings": 0.000608000000000004
        },
        "section3": {
            "gflopss": 0.31672198754838793,
            "oi": 7.1875,
            "timings": 0.015256333333333318
        }
    }
}