{
    "timestamp": "2019-10-14T220810",
    "meta": {},
    "timings": {
        "section0": {
            "gflopss": 74.43181066271262,
            "oi": 2.035939568128741,
            "timings": 974.6806833333329
        },
        "section1": {
            "gflopss": 0.03560455138031141,
            "oi": 17.25,
            "timings": 0.003433000000000009
        },
        "section2": {
            "gflopss": 3.7076119246500023,
            "oi": 8.916666666666666,
            "timings": 0.020923333333333332
        },
        "section3": {
            "gflopss": 6.02352550763743,
            "oi": 14.53722314372134,
            "timings": 0.03502599999999998
        }
    }
}