{
    "timestamp": "2019-10-03T202022",
    "meta": {},
    "timings": {
        "section0": {
            "gflopss": 115.57818972114619,
            "oi": 2.1562743978770578,
            "timings": 14.955498666666665
        },
        "section1": {
            "gflopss": 0.015364356702819023,
            "oi": 8.6875,
            "timings": 0.0029676666666666554
        },
        "section2": {
            "gflopss": 2.7776684441119666,
            "oi": 8.916666666666668,
            "timings": 0.0064693333333333295
        }
    }
}