{
    "timestamp": "2019-10-22T055529",
    "meta": {},
    "timings": {
        "section0": {
            "gflopss": 5.218332895961104,
            "oi": 0.28571428571428575,
            "timings": 1.754501
        },
        "section1": {
            "gflopss": 66.58340990251536,
            "oi": 1.5589672211302548,
            "timings": 669.1782626666668
        },
        "section2": {
            "gflopss": 0.026255935114490644,
            "oi": 13.9,
            "timings": 0.004404666666666672
        },
        "section3": {
            "gflopss": 1.1898271720560958,
            "oi": 7.1875,
            "timings": 0.004060999999999992
        }
    }
}