{
    "timestamp": "2019-10-23T144914",
    "meta": {},
    "timings": {
        "section0": {
            "gflopss": 5.203014647048152,
            "oi": 0.2857142857142857,
            "timings": 1.6850443333333331
        },
        "section1": {
            "gflopss": 63.621371630147905,
            "oi": 3.4593336027026282,
            "timings": 1485.9181886666665
        },
        "section2": {
            "gflopss": 0.03177443487022553,
            "oi": 13.9,
            "timings": 0.0036396666666666626
        },
        "section3": {
            "gflopss": 1.2857558138311387,
            "oi": 7.1875,
            "timings": 0.0037580000000000196
        }
    }
}