{
    "timestamp": "2019-10-06T102549",
    "meta": {},
    "timings": {
        "section0": {
            "gflopss": 102.58079141305905,
            "oi": 2.1562743978770578,
            "timings": 16.850552666666673
        },
        "section1": {
            "gflopss": 0.029466285154842526,
            "oi": 8.6875,
            "timings": 0.001553333333333338
        },
        "section2": {
            "gflopss": 4.627832121937577,
            "oi": 8.916666666666668,
            "timings": 0.0038829999999999885
        }
    }
}