{
    "timestamp": "2019-10-04T071212",
    "meta": {},
    "timings": {
        "section0": {
            "gflopss": 1.693928202316856,
            "oi": 0.2857142857142857,
            "timings": 0.7191493333333332
        },
        "section1": {
            "gflopss": 206.10349082788875,
            "oi": 5.175250419646894,
            "timings": 69.90096066666662
        },
        "section2": {
            "gflopss": 0.03672465014965686,
            "oi": 13.9,
            "timings": 0.0031496666666666843
        },
        "section3": {
            "gflopss": 1.381859358997741,
            "oi": 7.1875,
            "timings": 0.003496666666666689
        }
    }
}