{
    "timestamp": "2019-10-07T051928",
    "meta": {},
    "timings": {
        "section0": {
            "gflopss": 80.49826790330523,
            "oi": 2.0313256450357065,
            "timings": 119.18580066666671
        },
        "section1": {
            "gflopss": 0.04191369862603231,
            "oi": 17.25,
            "timings": 0.0029140000000000047
        },
        "section2": {
            "gflopss": 5.580668573010212,
            "oi": 8.916666666666666,
            "timings": 0.0069503333333333335
        },
        "section3": {
            "gflopss": 7.078615930220561,
            "oi": 14.52446870735036,
            "timings": 0.014902333333333337
        }
    }
}