{
    "timestamp": "2019-10-03T200848",
    "meta": {},
    "timings": {
        "section0": {
            "gflopss": 68.41635935074824,
            "oi": 2.1562743978770578,
            "timings": 25.26486033333332
        },
        "section1": {
            "gflopss": 0.037926971482578405,
            "oi": 8.6875,
            "timings": 0.0012040000000000004
        },
        "section2": {
            "gflopss": 1.6539650936466543,
            "oi": 8.916666666666668,
            "timings": 0.010864333333333337
        }
    }
}