{
    "timestamp": "2019-10-07T135305",
    "meta": {},
    "timings": {
        "section0": {
            "gflopss": 10.790649063810747,
            "oi": 2.090412223082116,
            "timings": 942.8530089999999
        },
        "section1": {
            "gflopss": 0.23392675560127799,
            "oi": 17.25,
            "timings": 0.00032899999999999987
        },
        "section2": {
            "gflopss": 2.052023712379251,
            "oi": 8.916666666666668,
            "timings": 0.01190733333333332
        },
        "section3": {
            "gflopss": 1.0011416550170182,
            "oi": 14.52446870735036,
            "timings": 0.06637466666666664
        }
    }
}