{
    "timestamp": "2019-10-07T020531",
    "meta": {},
    "timings": {
        "section0": {
            "gflopss": 25.377388568580397,
            "oi": 2.0313256450357065,
            "timings": 378.08852466666684
        },
        "section1": {
            "gflopss": 0.05868879072121023,
            "oi": 17.25,
            "timings": 0.002080999999999995
        },
        "section2": {
            "gflopss": 3.5956543898179283,
            "oi": 8.916666666666666,
            "timings": 0.010788666666666655
        },
        "section3": {
            "gflopss": 1.8329343136103038,
            "oi": 14.52446870735036,
            "timings": 0.05755166666666686
        }
    }
}