{
    "timestamp": "2019-10-25T022436",
    "meta": {},
    "timings": {
        "section0": {
            "gflopss": 88.24630665354107,
            "oi": 3.3825807083135264,
            "timings": 1369.4009263333335
        },
        "section1": {
            "gflopss": 0.03583050443523144,
            "oi": 17.25,
            "timings": 0.003408666666666661
        },
        "section2": {
            "gflopss": 8.528526181274705,
            "oi": 8.916666666666666,
            "timings": 0.009095999999999995
        },
        "section3": {
            "gflopss": 10.318375199710099,
            "oi": 24.10057499269077,
            "timings": 0.033936666666666636
        }
    }
}